{
  "expo": {
    "name": "Football My Bae",
    "icon": "./src/fmb/assets/img/AppLogo.png",
    "sdkVersion": "21.0.0",
    "slug": "terimaid-fmbae-app",
    "ios": {
      "bundleIdentifier": "com.terimaidlimited.fmbae"
    },
    "android": {
      "package": "com.terimaidlimited.fmbae",
      "versionCode": 2
    },
    "orientation": "portrait",
    "primaryColor": "#ffffff",
    "loading": {
      "icon": "./src/fmb/assets/img/transparent_icon.png",
      "backgroundImage": "./src/fmb/assets/img/splash_pic.png",
      "backgroundColor": "#ffffff",
      "hideExponentText": true
    }
  }
}
