{
    "_links": {
        "self": {
            "href": "http://api.football-data.org/v1/competitions/445/leagueTable/?matchday=11"
        },
        "competition": {
            "href": "http://api.football-data.org/v1/competitions/445"
        }
    },
    "leagueCaption": "Premier League 2017/18",
    "matchday": 11,
    "standing": [
        {
            "_links": {
                "team": {
                    "href": "http://api.football-data.org/v1/teams/65"
                }
            },
            "position": 1,
            "teamName": "Manchester City FC",
            "crestURI": "https://upload.wikimedia.org/wikipedia/en/e/eb/Manchester_City_FC_badge.svg",
            "playedGames": 11,
            "points": 31,
            "goals": 38,
            "goalsAgainst": 7,
            "goalDifference": 31,
            "wins": 10,
            "draws": 1,
            "losses": 0,
            "home": {
                "goals": 24,
                "goalsAgainst": 4,
                "wins": 5,
                "draws": 1,
                "losses": 0
            },
            "away": {
                "goals": 14,
                "goalsAgainst": 3,
                "wins": 5,
                "draws": 0,
                "losses": 0
            }
        },
        {
            "_links": {
                "team": {
                    "href": "http://api.football-data.org/v1/teams/66"
                }
            },
            "position": 2,
            "teamName": "Manchester United FC",
            "crestURI": "http://upload.wikimedia.org/wikipedia/de/d/da/Manchester_United_FC.svg",
            "playedGames": 11,
            "points": 23,
            "goals": 23,
            "goalsAgainst": 5,
            "goalDifference": 18,
            "wins": 7,
            "draws": 2,
            "losses": 2,
            "home": {
                "goals": 15,
                "goalsAgainst": 0,
                "wins": 5,
                "draws": 0,
                "losses": 0
            },
            "away": {
                "goals": 8,
                "goalsAgainst": 5,
                "wins": 2,
                "draws": 2,
                "losses": 2
            }
        },
        {
            "_links": {
                "team": {
                    "href": "http://api.football-data.org/v1/teams/73"
                }
            },
            "position": 3,
            "teamName": "Tottenham Hotspur FC",
            "crestURI": "http://upload.wikimedia.org/wikipedia/de/b/b4/Tottenham_Hotspur.svg",
            "playedGames": 11,
            "points": 23,
            "goals": 20,
            "goalsAgainst": 7,
            "goalDifference": 13,
            "wins": 7,
            "draws": 2,
            "losses": 2,
            "home": {
                "goals": 8,
                "goalsAgainst": 4,
                "wins": 3,
                "draws": 2,
                "losses": 1
            },
            "away": {
                "goals": 12,
                "goalsAgainst": 3,
                "wins": 4,
                "draws": 0,
                "losses": 1
            }
        },
        {
            "_links": {
                "team": {
                    "href": "http://api.football-data.org/v1/teams/61"
                }
            },
            "position": 4,
            "teamName": "Chelsea FC",
            "crestURI": "http://upload.wikimedia.org/wikipedia/de/5/5c/Chelsea_crest.svg",
            "playedGames": 11,
            "points": 22,
            "goals": 19,
            "goalsAgainst": 10,
            "goalDifference": 9,
            "wins": 7,
            "draws": 1,
            "losses": 3,
            "home": {
                "goals": 9,
                "goalsAgainst": 6,
                "wins": 3,
                "draws": 1,
                "losses": 2
            },
            "away": {
                "goals": 10,
                "goalsAgainst": 4,
                "wins": 4,
                "draws": 0,
                "losses": 1
            }
        },
        {
            "_links": {
                "team": {
                    "href": "http://api.football-data.org/v1/teams/64"
                }
            },
            "position": 5,
            "teamName": "Liverpool FC",
            "crestURI": "http://upload.wikimedia.org/wikipedia/de/0/0a/FC_Liverpool.svg",
            "playedGames": 11,
            "points": 19,
            "goals": 21,
            "goalsAgainst": 17,
            "goalDifference": 4,
            "wins": 5,
            "draws": 4,
            "losses": 2,
            "home": {
                "goals": 9,
                "goalsAgainst": 1,
                "wins": 3,
                "draws": 2,
                "losses": 0
            },
            "away": {
                "goals": 12,
                "goalsAgainst": 16,
                "wins": 2,
                "draws": 2,
                "losses": 2
            }
        },
        {
            "_links": {
                "team": {
                    "href": "http://api.football-data.org/v1/teams/57"
                }
            },
            "position": 6,
            "teamName": "Arsenal FC",
            "crestURI": "http://upload.wikimedia.org/wikipedia/en/5/53/Arsenal_FC.svg",
            "playedGames": 11,
            "points": 19,
            "goals": 20,
            "goalsAgainst": 16,
            "goalDifference": 4,
            "wins": 6,
            "draws": 1,
            "losses": 4,
            "home": {
                "goals": 13,
                "goalsAgainst": 4,
                "wins": 5,
                "draws": 0,
                "losses": 0
            },
            "away": {
                "goals": 7,
                "goalsAgainst": 12,
                "wins": 1,
                "draws": 1,
                "losses": 4
            }
        },
        {
            "_links": {
                "team": {
                    "href": "http://api.football-data.org/v1/teams/328"
                }
            },
            "position": 7,
            "teamName": "Burnley FC",
            "crestURI": "https://upload.wikimedia.org/wikipedia/en/0/02/Burnley_FC_badge.png",
            "playedGames": 11,
            "points": 19,
            "goals": 10,
            "goalsAgainst": 9,
            "goalDifference": 1,
            "wins": 5,
            "draws": 4,
            "losses": 2,
            "home": {
                "goals": 3,
                "goalsAgainst": 2,
                "wins": 2,
                "draws": 2,
                "losses": 1
            },
            "away": {
                "goals": 7,
                "goalsAgainst": 7,
                "wins": 3,
                "draws": 2,
                "losses": 1
            }
        },
        {
            "_links": {
                "team": {
                    "href": "http://api.football-data.org/v1/teams/397"
                }
            },
            "position": 8,
            "teamName": "Brighton & Hove Albion",
            "crestURI": "https://upload.wikimedia.org/wikipedia/en/f/fd/Brighton_&_Hove_Albion_logo.svg",
            "playedGames": 11,
            "points": 15,
            "goals": 11,
            "goalsAgainst": 11,
            "goalDifference": 0,
            "wins": 4,
            "draws": 3,
            "losses": 4,
            "home": {
                "goals": 6,
                "goalsAgainst": 5,
                "wins": 2,
                "draws": 2,
                "losses": 1
            },
            "away": {
                "goals": 5,
                "goalsAgainst": 6,
                "wins": 2,
                "draws": 1,
                "losses": 3
            }
        },
        {
            "_links": {
                "team": {
                    "href": "http://api.football-data.org/v1/teams/346"
                }
            },
            "position": 9,
            "teamName": "Watford FC",
            "crestURI": "https://upload.wikimedia.org/wikipedia/en/e/e2/Watford.svg",
            "playedGames": 11,
            "points": 15,
            "goals": 17,
            "goalsAgainst": 21,
            "goalDifference": -4,
            "wins": 4,
            "draws": 3,
            "losses": 4,
            "home": {
                "goals": 5,
                "goalsAgainst": 11,
                "wins": 1,
                "draws": 2,
                "losses": 2
            },
            "away": {
                "goals": 12,
                "goalsAgainst": 10,
                "wins": 3,
                "draws": 1,
                "losses": 2
            }
        },
        {
            "_links": {
                "team": {
                    "href": "http://api.football-data.org/v1/teams/394"
                }
            },
            "position": 10,
            "teamName": "Huddersfield Town",
            "crestURI": "https://upload.wikimedia.org/wikipedia/en/5/5a/Huddersfield_Town_A.F.C._logo.svg",
            "playedGames": 11,
            "points": 15,
            "goals": 8,
            "goalsAgainst": 13,
            "goalDifference": -5,
            "wins": 4,
            "draws": 3,
            "losses": 4,
            "home": {
                "goals": 5,
                "goalsAgainst": 6,
                "wins": 3,
                "draws": 2,
                "losses": 1
            },
            "away": {
                "goals": 3,
                "goalsAgainst": 7,
                "wins": 1,
                "draws": 1,
                "losses": 3
            }
        },
        {
            "_links": {
                "team": {
                    "href": "http://api.football-data.org/v1/teams/67"
                }
            },
            "position": 11,
            "teamName": "Newcastle United FC",
            "crestURI": "http://upload.wikimedia.org/wikipedia/de/5/56/Newcastle_United_Logo.svg",
            "playedGames": 11,
            "points": 14,
            "goals": 10,
            "goalsAgainst": 10,
            "goalDifference": 0,
            "wins": 4,
            "draws": 2,
            "losses": 5,
            "home": {
                "goals": 7,
                "goalsAgainst": 5,
                "wins": 3,
                "draws": 1,
                "losses": 2
            },
            "away": {
                "goals": 3,
                "goalsAgainst": 5,
                "wins": 1,
                "draws": 1,
                "losses": 3
            }
        },
        {
            "_links": {
                "team": {
                    "href": "http://api.football-data.org/v1/teams/338"
                }
            },
            "position": 12,
            "teamName": "Leicester City FC",
            "crestURI": "http://upload.wikimedia.org/wikipedia/en/6/63/Leicester02.png",
            "playedGames": 11,
            "points": 13,
            "goals": 16,
            "goalsAgainst": 16,
            "goalDifference": 0,
            "wins": 3,
            "draws": 4,
            "losses": 4,
            "home": {
                "goals": 8,
                "goalsAgainst": 6,
                "wins": 2,
                "draws": 1,
                "losses": 2
            },
            "away": {
                "goals": 8,
                "goalsAgainst": 10,
                "wins": 1,
                "draws": 3,
                "losses": 2
            }
        },
        {
            "_links": {
                "team": {
                    "href": "http://api.football-data.org/v1/teams/340"
                }
            },
            "position": 13,
            "teamName": "Southampton FC",
            "crestURI": "http://upload.wikimedia.org/wikipedia/de/c/c9/FC_Southampton.svg",
            "playedGames": 11,
            "points": 13,
            "goals": 9,
            "goalsAgainst": 11,
            "goalDifference": -2,
            "wins": 3,
            "draws": 4,
            "losses": 4,
            "home": {
                "goals": 6,
                "goalsAgainst": 8,
                "wins": 2,
                "draws": 2,
                "losses": 3
            },
            "away": {
                "goals": 3,
                "goalsAgainst": 3,
                "wins": 1,
                "draws": 2,
                "losses": 1
            }
        },
        {
            "_links": {
                "team": {
                    "href": "http://api.football-data.org/v1/teams/70"
                }
            },
            "position": 14,
            "teamName": "Stoke City FC",
            "crestURI": "http://upload.wikimedia.org/wikipedia/de/a/a3/Stoke_City.svg",
            "playedGames": 11,
            "points": 12,
            "goals": 13,
            "goalsAgainst": 22,
            "goalDifference": -9,
            "wins": 3,
            "draws": 3,
            "losses": 5,
            "home": {
                "goals": 8,
                "goalsAgainst": 11,
                "wins": 2,
                "draws": 2,
                "losses": 2
            },
            "away": {
                "goals": 5,
                "goalsAgainst": 11,
                "wins": 1,
                "draws": 1,
                "losses": 3
            }
        },
        {
            "_links": {
                "team": {
                    "href": "http://api.football-data.org/v1/teams/62"
                }
            },
            "position": 15,
            "teamName": "Everton FC",
            "crestURI": "http://upload.wikimedia.org/wikipedia/de/f/f9/Everton_FC.svg",
            "playedGames": 11,
            "points": 11,
            "goals": 10,
            "goalsAgainst": 22,
            "goalDifference": -12,
            "wins": 3,
            "draws": 2,
            "losses": 6,
            "home": {
                "goals": 8,
                "goalsAgainst": 12,
                "wins": 3,
                "draws": 0,
                "losses": 3
            },
            "away": {
                "goals": 2,
                "goalsAgainst": 10,
                "wins": 0,
                "draws": 2,
                "losses": 3
            }
        },
        {
            "_links": {
                "team": {
                    "href": "http://api.football-data.org/v1/teams/74"
                }
            },
            "position": 16,
            "teamName": "West Bromwich Albion FC",
            "crestURI": "http://upload.wikimedia.org/wikipedia/de/8/8b/West_Bromwich_Albion.svg",
            "playedGames": 11,
            "points": 10,
            "goals": 9,
            "goalsAgainst": 14,
            "goalDifference": -5,
            "wins": 2,
            "draws": 4,
            "losses": 5,
            "home": {
                "goals": 6,
                "goalsAgainst": 6,
                "wins": 1,
                "draws": 3,
                "losses": 1
            },
            "away": {
                "goals": 3,
                "goalsAgainst": 8,
                "wins": 1,
                "draws": 1,
                "losses": 4
            }
        },
        {
            "_links": {
                "team": {
                    "href": "http://api.football-data.org/v1/teams/1044"
                }
            },
            "position": 17,
            "teamName": "AFC Bournemouth",
            "crestURI": "https://upload.wikimedia.org/wikipedia/de/4/41/Afc_bournemouth.svg",
            "playedGames": 11,
            "points": 10,
            "goals": 7,
            "goalsAgainst": 14,
            "goalDifference": -7,
            "wins": 3,
            "draws": 1,
            "losses": 7,
            "home": {
                "goals": 3,
                "goalsAgainst": 6,
                "wins": 1,
                "draws": 1,
                "losses": 3
            },
            "away": {
                "goals": 4,
                "goalsAgainst": 8,
                "wins": 2,
                "draws": 0,
                "losses": 4
            }
        },
        {
            "_links": {
                "team": {
                    "href": "http://api.football-data.org/v1/teams/563"
                }
            },
            "position": 18,
            "teamName": "West Ham United FC",
            "crestURI": "http://upload.wikimedia.org/wikipedia/de/e/e0/West_Ham_United_FC.svg",
            "playedGames": 11,
            "points": 9,
            "goals": 11,
            "goalsAgainst": 23,
            "goalDifference": -12,
            "wins": 2,
            "draws": 3,
            "losses": 6,
            "home": {
                "goals": 6,
                "goalsAgainst": 10,
                "wins": 2,
                "draws": 0,
                "losses": 3
            },
            "away": {
                "goals": 5,
                "goalsAgainst": 13,
                "wins": 0,
                "draws": 3,
                "losses": 3
            }
        },
        {
            "_links": {
                "team": {
                    "href": "http://api.football-data.org/v1/teams/72"
                }
            },
            "position": 19,
            "teamName": "Swansea City FC",
            "crestURI": "http://upload.wikimedia.org/wikipedia/de/a/ab/Swansea_City_Logo.svg",
            "playedGames": 11,
            "points": 8,
            "goals": 7,
            "goalsAgainst": 13,
            "goalDifference": -6,
            "wins": 2,
            "draws": 2,
            "losses": 7,
            "home": {
                "goals": 4,
                "goalsAgainst": 10,
                "wins": 1,
                "draws": 0,
                "losses": 5
            },
            "away": {
                "goals": 3,
                "goalsAgainst": 3,
                "wins": 1,
                "draws": 2,
                "losses": 2
            }
        },
        {
            "_links": {
                "team": {
                    "href": "http://api.football-data.org/v1/teams/354"
                }
            },
            "position": 20,
            "teamName": "Crystal Palace FC",
            "crestURI": "http://upload.wikimedia.org/wikipedia/de/b/bf/Crystal_Palace_F.C._logo_(2013).png",
            "playedGames": 11,
            "points": 4,
            "goals": 4,
            "goalsAgainst": 22,
            "goalDifference": -18,
            "wins": 1,
            "draws": 1,
            "losses": 9,
            "home": {
                "goals": 4,
                "goalsAgainst": 9,
                "wins": 1,
                "draws": 1,
                "losses": 3
            },
            "away": {
                "goals": 0,
                "goalsAgainst": 13,
                "wins": 0,
                "draws": 0,
                "losses": 6
            }
        }
    ]
}